[gd_scene load_steps=3 format=2]

[ext_resource path="res://light.png" type="Texture" id=1]
[ext_resource path="res://spot.png" type="Texture" id=2]

[node name="Light2D" type="Light2D"]
position = Vector2( -0.799194, 0 )
texture = ExtResource( 1 )
texture_scale = 0.6
color = Color( 1, 1, 1, 0.25098 )
shadow_enabled = true
shadow_gradient_length = 6.0
shadow_filter = 3
shadow_filter_smooth = 5.0

[node name="Sprite" type="Sprite" parent="."]
scale = Vector2( 0.2, 0.2 )
texture = ExtResource( 2 )
